<?xml version="1.0" encoding="UTF-8" standalone="no"?>
<svg
   height="48"
   viewBox="0 -960 960 960"
   width="48"
   version="1.1"
   id="svg1"
   sodipodi:docname="list_w300.svg"
   inkscape:version="1.3 (1:1.3+202307231459+0e150ed6c4)"
   xmlns:inkscape="http://www.inkscape.org/namespaces/inkscape"
   xmlns:sodipodi="http://sodipodi.sourceforge.net/DTD/sodipodi-0.dtd"
   xmlns="http://www.w3.org/2000/svg"
   xmlns:svg="http://www.w3.org/2000/svg">
  <defs
     id="defs1" />
  <sodipodi:namedview
     id="namedview1"
     pagecolor="#505050"
     bordercolor="#eeeeee"
     borderopacity="1"
     inkscape:showpageshadow="0"
     inkscape:pageopacity="0"
     inkscape:pagecheckerboard="0"
     inkscape:deskcolor="#d1d1d1"
     inkscape:zoom="15.654304"
     inkscape:cx="23.955073"
     inkscape:cy="23.987013"
     inkscape:window-width="1904"
     inkscape:window-height="931"
     inkscape:window-x="8"
     inkscape:window-y="40"
     inkscape:window-maximized="0"
     inkscape:current-layer="svg1" />
  <path
     d="m 140.001,-660 v -45.384 h 560 V -660 Z"
     id="path3"
     style="stroke-width:0.907487" />
  <path
     d="m 140.001,-457.308 v -45.384 h 679.998 v 45.384 z"
     id="path2" />
  <path
     d="M 140.001,-254.616 V -300 h 439.998 v 45.384 H 140.001 Z"
     id="path1" />
</svg>
